%YAML 1.1
%TAG !u! tag:unity3d.com,2011:
--- !u!1001 &3812361455781322828
PrefabInstance:
  m_ObjectHideFlags: 0
  serializedVersion: 2
  m_Modification:
    m_TransformParent: {fileID: 0}
    m_Modifications:
    - target: {fileID: 872737094932823341, guid: 4945c0fc0b9ad224396ed3b5ad65bc5a,
        type: 3}
      propertyPath: m_Name
      value: Knife13
      objectReference: {fileID: 0}
    - target: {fileID: 1218808260095528717, guid: 4945c0fc0b9ad224396ed3b5ad65bc5a,
        type: 3}
      propertyPath: m_LocalPosition.x
      value: 0
      objectReference: {fileID: 0}
    - target: {fileID: 1218808260095528717, guid: 4945c0fc0b9ad224396ed3b5ad65bc5a,
        type: 3}
      propertyPath: m_LocalPosition.y
      value: 0
      objectReference: {fileID: 0}
    - target: {fileID: 1218808260095528717, guid: 4945c0fc0b9ad224396ed3b5ad65bc5a,
        type: 3}
      propertyPath: m_LocalPosition.z
      value: 0
      objectReference: {fileID: 0}
    - target: {fileID: 1218808260095528717, guid: 4945c0fc0b9ad224396ed3b5ad65bc5a,
        type: 3}
      propertyPath: m_LocalRotation.x
      value: 0
      objectReference: {fileID: 0}
    - target: {fileID: 1218808260095528717, guid: 4945c0fc0b9ad224396ed3b5ad65bc5a,
        type: 3}
      propertyPath: m_LocalRotation.y
      value: 0
      objectReference: {fileID: 0}
    - target: {fileID: 1218808260095528717, guid: 4945c0fc0b9ad224396ed3b5ad65bc5a,
        type: 3}
      propertyPath: m_LocalRotation.z
      value: 0
      objectReference: {fileID: 0}
    - target: {fileID: 1218808260095528717, guid: 4945c0fc0b9ad224396ed3b5ad65bc5a,
        type: 3}
      propertyPath: m_LocalRotation.w
      value: 1
      objectReference: {fileID: 0}
    - target: {fileID: 1218808260095528717, guid: 4945c0fc0b9ad224396ed3b5ad65bc5a,
        type: 3}
      propertyPath: m_RootOrder
      value: 0
      objectReference: {fileID: 0}
    - target: {fileID: 1218808260095528717, guid: 4945c0fc0b9ad224396ed3b5ad65bc5a,
        type: 3}
      propertyPath: m_LocalEulerAnglesHint.x
      value: 0
      objectReference: {fileID: 0}
    - target: {fileID: 1218808260095528717, guid: 4945c0fc0b9ad224396ed3b5ad65bc5a,
        type: 3}
      propertyPath: m_LocalEulerAnglesHint.y
      value: 0
      objectReference: {fileID: 0}
    - target: {fileID: 1218808260095528717, guid: 4945c0fc0b9ad224396ed3b5ad65bc5a,
        type: 3}
      propertyPath: m_LocalEulerAnglesHint.z
      value: 0
      objectReference: {fileID: 0}
    - target: {fileID: 7013233552337718442, guid: 4945c0fc0b9ad224396ed3b5ad65bc5a,
        type: 3}
      propertyPath: m_Sprite
      value: 
      objectReference: {fileID: 21300000, guid: 8613474dc222ae74789340bc60f3f6b4,
        type: 3}
    m_RemovedComponents: []
  m_SourcePrefab: {fileID: 100100000, guid: 4945c0fc0b9ad224396ed3b5ad65bc5a, type: 3}
