%YAML 1.1
%TAG !u! tag:unity3d.com,2011:
--- !u!1001 &8332641148726202544
PrefabInstance:
  m_ObjectHideFlags: 0
  serializedVersion: 2
  m_Modification:
    m_TransformParent: {fileID: 0}
    m_Modifications:
    - target: {fileID: 321486690181441045, guid: c503d9574fa73a04f9339bd6336729a1,
        type: 3}
      propertyPath: m_LocalRotation.x
      value: 0
      objectReference: {fileID: 0}
    - target: {fileID: 321486690181441045, guid: c503d9574fa73a04f9339bd6336729a1,
        type: 3}
      propertyPath: m_LocalRotation.y
      value: 0
      objectReference: {fileID: 0}
    - target: {fileID: 321486690181441045, guid: c503d9574fa73a04f9339bd6336729a1,
        type: 3}
      propertyPath: m_LocalRotation.z
      value: 0.6459174
      objectReference: {fileID: 0}
    - target: {fileID: 321486690181441045, guid: c503d9574fa73a04f9339bd6336729a1,
        type: 3}
      propertyPath: m_LocalRotation.w
      value: 0.7634073
      objectReference: {fileID: 0}
    - target: {fileID: 321486690181441045, guid: c503d9574fa73a04f9339bd6336729a1,
        type: 3}
      propertyPath: m_LocalEulerAnglesHint.z
      value: 80.469
      objectReference: {fileID: 0}
    - target: {fileID: 549122628643970772, guid: c503d9574fa73a04f9339bd6336729a1,
        type: 3}
      propertyPath: m_LocalRotation.x
      value: 0
      objectReference: {fileID: 0}
    - target: {fileID: 549122628643970772, guid: c503d9574fa73a04f9339bd6336729a1,
        type: 3}
      propertyPath: m_LocalRotation.y
      value: 0
      objectReference: {fileID: 0}
    - target: {fileID: 549122628643970772, guid: c503d9574fa73a04f9339bd6336729a1,
        type: 3}
      propertyPath: m_LocalRotation.z
      value: -0.9047379
      objectReference: {fileID: 0}
    - target: {fileID: 549122628643970772, guid: c503d9574fa73a04f9339bd6336729a1,
        type: 3}
      propertyPath: m_LocalRotation.w
      value: 0.42596883
      objectReference: {fileID: 0}
    - target: {fileID: 549122628643970772, guid: c503d9574fa73a04f9339bd6336729a1,
        type: 3}
      propertyPath: m_LocalEulerAnglesHint.z
      value: -129.576
      objectReference: {fileID: 0}
    - target: {fileID: 1174606447019419189, guid: c503d9574fa73a04f9339bd6336729a1,
        type: 3}
      propertyPath: m_LocalRotation.x
      value: -0
      objectReference: {fileID: 0}
    - target: {fileID: 1174606447019419189, guid: c503d9574fa73a04f9339bd6336729a1,
        type: 3}
      propertyPath: m_LocalRotation.y
      value: -0
      objectReference: {fileID: 0}
    - target: {fileID: 1174606447019419189, guid: c503d9574fa73a04f9339bd6336729a1,
        type: 3}
      propertyPath: m_LocalRotation.z
      value: -0.6459179
      objectReference: {fileID: 0}
    - target: {fileID: 1174606447019419189, guid: c503d9574fa73a04f9339bd6336729a1,
        type: 3}
      propertyPath: m_LocalRotation.w
      value: 0.76340693
      objectReference: {fileID: 0}
    - target: {fileID: 1174606447019419189, guid: c503d9574fa73a04f9339bd6336729a1,
        type: 3}
      propertyPath: m_LocalEulerAnglesHint.z
      value: -80.469
      objectReference: {fileID: 0}
    - target: {fileID: 3373947376079359108, guid: c503d9574fa73a04f9339bd6336729a1,
        type: 3}
      propertyPath: m_Name
      value: Stage3
      objectReference: {fileID: 0}
    - target: {fileID: 4744263314376762159, guid: c503d9574fa73a04f9339bd6336729a1,
        type: 3}
      propertyPath: m_Sprite
      value: 
      objectReference: {fileID: 21300000, guid: 1bf546149ada00544b9beb173145b576,
        type: 3}
    - target: {fileID: 4774760665596071944, guid: c503d9574fa73a04f9339bd6336729a1,
        type: 3}
      propertyPath: m_LocalPosition.x
      value: 0
      objectReference: {fileID: 0}
    - target: {fileID: 4774760665596071944, guid: c503d9574fa73a04f9339bd6336729a1,
        type: 3}
      propertyPath: m_LocalPosition.y
      value: 0
      objectReference: {fileID: 0}
    - target: {fileID: 4774760665596071944, guid: c503d9574fa73a04f9339bd6336729a1,
        type: 3}
      propertyPath: m_LocalPosition.z
      value: 0
      objectReference: {fileID: 0}
    - target: {fileID: 4774760665596071944, guid: c503d9574fa73a04f9339bd6336729a1,
        type: 3}
      propertyPath: m_LocalRotation.x
      value: 0
      objectReference: {fileID: 0}
    - target: {fileID: 4774760665596071944, guid: c503d9574fa73a04f9339bd6336729a1,
        type: 3}
      propertyPath: m_LocalRotation.y
      value: 0
      objectReference: {fileID: 0}
    - target: {fileID: 4774760665596071944, guid: c503d9574fa73a04f9339bd6336729a1,
        type: 3}
      propertyPath: m_LocalRotation.z
      value: 0
      objectReference: {fileID: 0}
    - target: {fileID: 4774760665596071944, guid: c503d9574fa73a04f9339bd6336729a1,
        type: 3}
      propertyPath: m_LocalRotation.w
      value: 1
      objectReference: {fileID: 0}
    - target: {fileID: 4774760665596071944, guid: c503d9574fa73a04f9339bd6336729a1,
        type: 3}
      propertyPath: m_RootOrder
      value: 0
      objectReference: {fileID: 0}
    - target: {fileID: 4774760665596071944, guid: c503d9574fa73a04f9339bd6336729a1,
        type: 3}
      propertyPath: m_LocalEulerAnglesHint.x
      value: 0
      objectReference: {fileID: 0}
    - target: {fileID: 4774760665596071944, guid: c503d9574fa73a04f9339bd6336729a1,
        type: 3}
      propertyPath: m_LocalEulerAnglesHint.y
      value: 0
      objectReference: {fileID: 0}
    - target: {fileID: 4774760665596071944, guid: c503d9574fa73a04f9339bd6336729a1,
        type: 3}
      propertyPath: m_LocalEulerAnglesHint.z
      value: 0
      objectReference: {fileID: 0}
    - target: {fileID: 4836962211951819483, guid: c503d9574fa73a04f9339bd6336729a1,
        type: 3}
      propertyPath: m_Sprite
      value: 
      objectReference: {fileID: 21300000, guid: 7edf10265ba2e88459026671abeb9eab,
        type: 3}
    - target: {fileID: 4836962211951819483, guid: c503d9574fa73a04f9339bd6336729a1,
        type: 3}
      propertyPath: m_Enabled
      value: 1
      objectReference: {fileID: 0}
    - target: {fileID: 5601605370700965109, guid: c503d9574fa73a04f9339bd6336729a1,
        type: 3}
      propertyPath: m_Name
      value: Itens
      objectReference: {fileID: 0}
    - target: {fileID: 6222003460985382666, guid: c503d9574fa73a04f9339bd6336729a1,
        type: 3}
      propertyPath: m_IsActive
      value: 0
      objectReference: {fileID: 0}
    - target: {fileID: 6364485443482888240, guid: c503d9574fa73a04f9339bd6336729a1,
        type: 3}
      propertyPath: m_LocalRotation.x
      value: -0
      objectReference: {fileID: 0}
    - target: {fileID: 6364485443482888240, guid: c503d9574fa73a04f9339bd6336729a1,
        type: 3}
      propertyPath: m_LocalRotation.y
      value: -0
      objectReference: {fileID: 0}
    - target: {fileID: 6364485443482888240, guid: c503d9574fa73a04f9339bd6336729a1,
        type: 3}
      propertyPath: m_LocalRotation.z
      value: 0.09379179
      objectReference: {fileID: 0}
    - target: {fileID: 6364485443482888240, guid: c503d9574fa73a04f9339bd6336729a1,
        type: 3}
      propertyPath: m_LocalRotation.w
      value: 0.9955919
      objectReference: {fileID: 0}
    - target: {fileID: 6364485443482888240, guid: c503d9574fa73a04f9339bd6336729a1,
        type: 3}
      propertyPath: m_LocalEulerAnglesHint.z
      value: 10.764001
      objectReference: {fileID: 0}
    - target: {fileID: 6466713928563338796, guid: c503d9574fa73a04f9339bd6336729a1,
        type: 3}
      propertyPath: m_LocalRotation.x
      value: -0
      objectReference: {fileID: 0}
    - target: {fileID: 6466713928563338796, guid: c503d9574fa73a04f9339bd6336729a1,
        type: 3}
      propertyPath: m_LocalRotation.y
      value: -0
      objectReference: {fileID: 0}
    - target: {fileID: 6466713928563338796, guid: c503d9574fa73a04f9339bd6336729a1,
        type: 3}
      propertyPath: m_LocalRotation.z
      value: 0.90473735
      objectReference: {fileID: 0}
    - target: {fileID: 6466713928563338796, guid: c503d9574fa73a04f9339bd6336729a1,
        type: 3}
      propertyPath: m_LocalRotation.w
      value: 0.42596993
      objectReference: {fileID: 0}
    - target: {fileID: 6466713928563338796, guid: c503d9574fa73a04f9339bd6336729a1,
        type: 3}
      propertyPath: m_LocalEulerAnglesHint.z
      value: 129.576
      objectReference: {fileID: 0}
    - target: {fileID: 6626583837824404802, guid: c503d9574fa73a04f9339bd6336729a1,
        type: 3}
      propertyPath: m_LocalScale.x
      value: 1.6768119
      objectReference: {fileID: 0}
    - target: {fileID: 6626583837824404802, guid: c503d9574fa73a04f9339bd6336729a1,
        type: 3}
      propertyPath: m_LocalScale.y
      value: 1.6768119
      objectReference: {fileID: 0}
    - target: {fileID: 6626583837824404802, guid: c503d9574fa73a04f9339bd6336729a1,
        type: 3}
      propertyPath: m_LocalScale.z
      value: 1.6768119
      objectReference: {fileID: 0}
    - target: {fileID: 6626583837824404802, guid: c503d9574fa73a04f9339bd6336729a1,
        type: 3}
      propertyPath: m_LocalPosition.y
      value: 0.06
      objectReference: {fileID: 0}
    - target: {fileID: 6626583837824404802, guid: c503d9574fa73a04f9339bd6336729a1,
        type: 3}
      propertyPath: m_LocalPosition.x
      value: -0.04
      objectReference: {fileID: 0}
    - target: {fileID: 6849297162998649784, guid: c503d9574fa73a04f9339bd6336729a1,
        type: 3}
      propertyPath: m_Sprite
      value: 
      objectReference: {fileID: 21300000, guid: c23ece42b9383fa439b68b45a4eda745,
        type: 3}
    - target: {fileID: 6975065960110546034, guid: c503d9574fa73a04f9339bd6336729a1,
        type: 3}
      propertyPath: m_IsActive
      value: 0
      objectReference: {fileID: 0}
    - target: {fileID: 7067323224738061118, guid: c503d9574fa73a04f9339bd6336729a1,
        type: 3}
      propertyPath: m_IsActive
      value: 0
      objectReference: {fileID: 0}
    - target: {fileID: 7327586289536849094, guid: c503d9574fa73a04f9339bd6336729a1,
        type: 3}
      propertyPath: m_IsActive
      value: 1
      objectReference: {fileID: 0}
    - target: {fileID: 8730326264472457790, guid: c503d9574fa73a04f9339bd6336729a1,
        type: 3}
      propertyPath: m_Sprite
      value: 
      objectReference: {fileID: 21300000, guid: 2cbeb42db563f8c49a25c395ed49ed7d,
        type: 3}
    - target: {fileID: 8730326264472457790, guid: c503d9574fa73a04f9339bd6336729a1,
        type: 3}
      propertyPath: m_Size.x
      value: 1.99
      objectReference: {fileID: 0}
    - target: {fileID: 8730326264472457790, guid: c503d9574fa73a04f9339bd6336729a1,
        type: 3}
      propertyPath: m_Size.y
      value: 2.09
      objectReference: {fileID: 0}
    - target: {fileID: 8730326264472457790, guid: c503d9574fa73a04f9339bd6336729a1,
        type: 3}
      propertyPath: m_Enabled
      value: 1
      objectReference: {fileID: 0}
    - target: {fileID: 8895887346404763528, guid: c503d9574fa73a04f9339bd6336729a1,
        type: 3}
      propertyPath: m_LocalRotation.x
      value: 0
      objectReference: {fileID: 0}
    - target: {fileID: 8895887346404763528, guid: c503d9574fa73a04f9339bd6336729a1,
        type: 3}
      propertyPath: m_LocalRotation.y
      value: 0
      objectReference: {fileID: 0}
    - target: {fileID: 8895887346404763528, guid: c503d9574fa73a04f9339bd6336729a1,
        type: 3}
      propertyPath: m_LocalRotation.z
      value: -0.09379559
      objectReference: {fileID: 0}
    - target: {fileID: 8895887346404763528, guid: c503d9574fa73a04f9339bd6336729a1,
        type: 3}
      propertyPath: m_LocalRotation.w
      value: 0.9955915
      objectReference: {fileID: 0}
    - target: {fileID: 8895887346404763528, guid: c503d9574fa73a04f9339bd6336729a1,
        type: 3}
      propertyPath: m_LocalEulerAnglesHint.z
      value: -10.764
      objectReference: {fileID: 0}
    m_RemovedComponents: []
  m_SourcePrefab: {fileID: 100100000, guid: c503d9574fa73a04f9339bd6336729a1, type: 3}
