%YAML 1.1
%TAG !u! tag:unity3d.com,2011:
--- !u!1001 &951681261641957958
PrefabInstance:
  m_ObjectHideFlags: 0
  serializedVersion: 2
  m_Modification:
    m_TransformParent: {fileID: 0}
    m_Modifications:
    - target: {fileID: 872737094932823341, guid: 4945c0fc0b9ad224396ed3b5ad65bc5a,
        type: 3}
      propertyPath: m_Name
      value: Knife2
      objectReference: {fileID: 0}
    - target: {fileID: 1218808260095528717, guid: 4945c0fc0b9ad224396ed3b5ad65bc5a,
        type: 3}
      propertyPath: m_LocalPosition.x
      value: 0
      objectReference: {fileID: 0}
    - target: {fileID: 1218808260095528717, guid: 4945c0fc0b9ad224396ed3b5ad65bc5a,
        type: 3}
      propertyPath: m_LocalPosition.y
      value: 0
      objectReference: {fileID: 0}
    - target: {fileID: 1218808260095528717, guid: 4945c0fc0b9ad224396ed3b5ad65bc5a,
        type: 3}
      propertyPath: m_LocalPosition.z
      value: 0
      objectReference: {fileID: 0}
    - target: {fileID: 1218808260095528717, guid: 4945c0fc0b9ad224396ed3b5ad65bc5a,
        type: 3}
      propertyPath: m_LocalRotation.x
      value: 0
      objectReference: {fileID: 0}
    - target: {fileID: 1218808260095528717, guid: 4945c0fc0b9ad224396ed3b5ad65bc5a,
        type: 3}
      propertyPath: m_LocalRotation.y
      value: 0
      objectReference: {fileID: 0}
    - target: {fileID: 1218808260095528717, guid: 4945c0fc0b9ad224396ed3b5ad65bc5a,
        type: 3}
      propertyPath: m_LocalRotation.z
      value: 0
      objectReference: {fileID: 0}
    - target: {fileID: 1218808260095528717, guid: 4945c0fc0b9ad224396ed3b5ad65bc5a,
        type: 3}
      propertyPath: m_LocalRotation.w
      value: 1
      objectReference: {fileID: 0}
    - target: {fileID: 1218808260095528717, guid: 4945c0fc0b9ad224396ed3b5ad65bc5a,
        type: 3}
      propertyPath: m_RootOrder
      value: 0
      objectReference: {fileID: 0}
    - target: {fileID: 1218808260095528717, guid: 4945c0fc0b9ad224396ed3b5ad65bc5a,
        type: 3}
      propertyPath: m_LocalEulerAnglesHint.x
      value: 0
      objectReference: {fileID: 0}
    - target: {fileID: 1218808260095528717, guid: 4945c0fc0b9ad224396ed3b5ad65bc5a,
        type: 3}
      propertyPath: m_LocalEulerAnglesHint.y
      value: 0
      objectReference: {fileID: 0}
    - target: {fileID: 1218808260095528717, guid: 4945c0fc0b9ad224396ed3b5ad65bc5a,
        type: 3}
      propertyPath: m_LocalEulerAnglesHint.z
      value: 0
      objectReference: {fileID: 0}
    - target: {fileID: 1990465847592613104, guid: 4945c0fc0b9ad224396ed3b5ad65bc5a,
        type: 3}
      propertyPath: m_LocalRotation.x
      value: -0
      objectReference: {fileID: 0}
    - target: {fileID: 1990465847592613104, guid: 4945c0fc0b9ad224396ed3b5ad65bc5a,
        type: 3}
      propertyPath: m_LocalRotation.y
      value: -0
      objectReference: {fileID: 0}
    - target: {fileID: 1990465847592613104, guid: 4945c0fc0b9ad224396ed3b5ad65bc5a,
        type: 3}
      propertyPath: m_LocalRotation.z
      value: -1
      objectReference: {fileID: 0}
    - target: {fileID: 1990465847592613104, guid: 4945c0fc0b9ad224396ed3b5ad65bc5a,
        type: 3}
      propertyPath: m_LocalRotation.w
      value: -0.0000000745058
      objectReference: {fileID: 0}
    - target: {fileID: 1990465847592613104, guid: 4945c0fc0b9ad224396ed3b5ad65bc5a,
        type: 3}
      propertyPath: m_LocalEulerAnglesHint.z
      value: -179.99998
      objectReference: {fileID: 0}
    - target: {fileID: 1990465847592613104, guid: 4945c0fc0b9ad224396ed3b5ad65bc5a,
        type: 3}
      propertyPath: m_LocalScale.x
      value: 0.60216
      objectReference: {fileID: 0}
    - target: {fileID: 1990465847592613104, guid: 4945c0fc0b9ad224396ed3b5ad65bc5a,
        type: 3}
      propertyPath: m_LocalScale.y
      value: 0.60216
      objectReference: {fileID: 0}
    - target: {fileID: 1990465847592613104, guid: 4945c0fc0b9ad224396ed3b5ad65bc5a,
        type: 3}
      propertyPath: m_LocalScale.z
      value: 0.60216
      objectReference: {fileID: 0}
    - target: {fileID: 1990465847592613104, guid: 4945c0fc0b9ad224396ed3b5ad65bc5a,
        type: 3}
      propertyPath: m_LocalPosition.x
      value: 0.024
      objectReference: {fileID: 0}
    - target: {fileID: 7013233552337718442, guid: 4945c0fc0b9ad224396ed3b5ad65bc5a,
        type: 3}
      propertyPath: m_Sprite
      value: 
      objectReference: {fileID: 21300000, guid: 0ab18b7d2c4a998418254f2501f6b544,
        type: 3}
    m_RemovedComponents: []
  m_SourcePrefab: {fileID: 100100000, guid: 4945c0fc0b9ad224396ed3b5ad65bc5a, type: 3}
